…
print(homicide_df)
```

    ## # A tibble: 39,693 × 14
    ##    uid        reported_date victim_last  victim_first victim_race victim_age
    ##    <chr>              <dbl> <chr>        <chr>        <chr>            <dbl>
    ##  1 Alb-000003      20100601 Satterfield  Viviana      White               15
    ##  2 Alb-000005      20100102 Mula         Vivian       White               72
    ##  3 Alb-000006      20100126 Book         Geraldine    White               91
    ##  4 Alb-000009      20100130 Martin-Leyva Gustavo      White               56
    ##  5 Alb-000012      20100218 Lujan        Kevin        White               NA
    ##  6 Alb-000016      20100308 Gray         Stefania     White               43
    ##  7 Alb-000018      20100323 David        Larry        White               52
    ##  8 Alb-000019      20100402 Brito        Elizabeth    White               22
    ##  9 Alb-000021      20100423 King         Tevion       Black               15
    ## 10 Alb-000022      20100423 Boykin       Cedric       Black               25
    ## # ℹ 39,683 more rows
    ## # ℹ 8 more variables: victim_sex <chr>, city <chr>, state <chr>, lat <dbl>,
    ## #   lon <dbl>, disposition <chr>, city_state <chr>, case_resolved <chr>
…
